/Users/nlgonzalez/Downloads/MSLeases 3/src/main/java/ar/com/cablevisionfibertel/autoinstalacion/services/RestClient.java
/Users/nlgonzalez/Downloads/MSLeases 3/src/main/java/ar/com/cablevisionfibertel/autoinstalacion/LeaseService.java
/Users/nlgonzalez/Downloads/MSLeases 3/src/main/java/ar/com/cablevisionfibertel/autoinstalacion/controller/RootController.java
